[gd_scene load_steps=3 format=2]

[ext_resource path="res://scenes/BasicUFO.tscn" type="PackedScene" id=1]
[ext_resource path="res://scenes/BasicUFOSquad.gd" type="Script" id=2]

[node name="BasicUFOSquad" type="Node2D"]
script = ExtResource( 2 )

[node name="ArrivalTimer" type="Timer" parent="."]
wait_time = 1.9

[node name="UFOs" type="Node2D" parent="."]

[node name="BasicUFO" parent="UFOs" instance=ExtResource( 1 )]
position = Vector2( 0, -50 )

[node name="BasicUFO2" parent="UFOs" instance=ExtResource( 1 )]
position = Vector2( 0, 50 )
[connection signal="timeout" from="ArrivalTimer" to="." method="_on_ArrivalTimer_timeout"]
